4.600000000000000200e-01,1.699999999999999956e+00,-4.299999999999999933e-01,-4.910000000000000142e+00,-1.679999999999999938e+00
1.050000000000000044e+00,-1.870000000000000107e+00,-3.490000000000000213e+00,-3.729999999999999982e+00,-2.689999999999999947e+00
2.509999999999999787e+00,-4.549999999999999822e+00,3.209999999999999964e+00,-1.620000000000000107e+00,4.450000000000000178e+00
3.810000000000000053e+00,-4.129999999999999893e+00,-3.900000000000000133e-01,-4.339999999999999858e+00,1.719999999999999973e+00
4.179999999999999716e+00,-1.389999999999999902e+00,-2.819999999999999840e+00,-2.600000000000000089e+00,-4.000000000000000000e+00
-5.000000000000000000e-01,-4.769999999999999574e+00,3.220000000000000195e+00,-4.049999999999999822e+00,-3.109999999999999876e+00
-2.629999999999999893e+00,-2.279999999999999805e+00,-4.799999999999999822e-01,-2.279999999999999805e+00,-2.160000000000000142e+00
-2.689999999999999947e+00,-4.599999999999999645e+00,-2.040000000000000036e+00,1.429999999999999938e+00,2.560000000000000053e+00
-1.260000000000000009e+00,2.270000000000000018e+00,-1.199999999999999956e-01,-1.590000000000000080e+00,-4.500000000000000111e-01
-1.129999999999999893e+00,-3.759999999999999787e+00,-4.919999999999999929e+00,-1.419999999999999929e+00,-4.870000000000000107e+00
-1.540000000000000036e+00,4.309999999999999609e+00,-7.700000000000000178e-01,-4.400000000000000355e+00,-4.690000000000000391e+00
-3.099999999999999978e-01,3.009999999999999787e+00,-1.330000000000000071e+00,-2.930000000000000160e+00,-2.660000000000000142e+00
3.089999999999999858e+00,3.490000000000000213e+00,4.820000000000000284e+00,3.970000000000000195e+00,4.910000000000000142e+00
2.720000000000000195e+00,-4.059999999999999609e+00,2.229999999999999982e+00,5.600000000000000533e-01,-1.919999999999999929e+00
3.729999999999999982e+00,1.800000000000000044e+00,4.490000000000000213e+00,-4.959999999999999964e+00,2.459999999999999964e+00
1.739999999999999991e+00,-4.959999999999999964e+00,-2.390000000000000124e+00,-1.590000000000000080e+00,-1.060000000000000053e+00
-4.179999999999999716e+00,-2.060000000000000053e+00,2.209999999999999964e+00,-2.189999999999999947e+00,-1.500000000000000000e+00
-2.799999999999999822e+00,-8.199999999999999512e-01,2.620000000000000107e+00,-1.409999999999999920e+00,-5.699999999999999512e-01
9.899999999999999911e-01,3.270000000000000018e+00,-2.129999999999999893e+00,-3.830000000000000071e+00,4.429999999999999716e+00
-3.350000000000000089e+00,-2.680000000000000160e+00,9.899999999999999911e-01,4.389999999999999680e+00,-8.999999999999999667e-02
