B,42
I,1
CP,0.0,0.0,1.0,0.0,0.0
CS,0.0,0.0,0.0,0.0,0.0
CS,5.0,5.0,5.0,5.0,5.0
CS,5.0,5.0,5.0,5.0,5.0
A,-1.0
R,5.0
NS,5.0,5.0,5.0,5.0,5.0
NS,5.0,5.0,5.0,5.0,5.0
NS,4.0,4.0,4.0,4.0,4.0
I,2
CP,0.0,0.0,1.0,0.0,0.0
CS,0.0,0.0,0.0,0.0,0.0
CS,5.0,5.0,5.0,5.0,5.0
CS,5.0,5.0,5.0,5.0,5.0
A,0.0
R,5.0
NS,5.0,5.0,5.0,5.0,5.0
NS,5.0,5.0,5.0,5.0,5.0
NS,4.0,4.0,4.0,4.0,4.0
I,3
CP,0.0,0.0,1.0,0.0,0.0
CS,0.0,0.0,0.0,0.0,0.0
CS,2.0,4.0,0.0,-1.0,-1.0
CS,3.0,3.0,0.0,-1.0,-1.0
A,0.0
R,0.0
NS,2.0,4.0,0.0,-1.0,-1.0
NS,3.0,3.0,0.0,-1.0,-1.0
NS,4.0,2.0,0.0,-1.0,-1.0
I,4
CP,0.0,0.0,1.0,0.0,0.0
CS,2.0,4.0,0.0,-1.0,-1.0
CS,3.0,3.0,0.0,-1.0,-1.0
CS,4.0,2.0,0.0,-1.0,-1.0
A,0.0
R,0.0
NS,3.0,3.0,0.0,-1.0,-1.0
NS,4.0,2.0,0.0,-1.0,-1.0
NS,5.0,1.0,0.0,-1.0,-1.0
I,5
CP,0.0,0.0,1.0,0.0,0.0
CS,3.0,3.0,0.0,-1.0,-1.0
CS,4.0,2.0,0.0,-1.0,-1.0
CS,5.0,1.0,0.0,-1.0,-1.0
A,0.0
R,0.0
NS,4.0,2.0,0.0,-1.0,-1.0
NS,5.0,1.0,0.0,-1.0,-1.0
NS,4.0,2.0,0.0,-1.0,-1.0
I,6
CP,0.0,0.0,1.0,0.0,0.0
CS,4.0,2.0,0.0,-1.0,-1.0
CS,5.0,1.0,0.0,-1.0,-1.0
CS,4.0,2.0,0.0,-1.0,-1.0
A,0.0
R,0.0
NS,5.0,1.0,0.0,-1.0,-1.0
NS,4.0,2.0,0.0,-1.0,-1.0
NS,3.0,3.0,0.0,-1.0,-1.0
I,7
CP,0.0,0.0,1.0,0.0,0.0
CS,5.0,1.0,0.0,-1.0,-1.0
CS,4.0,2.0,0.0,-1.0,-1.0
CS,3.0,3.0,0.0,-1.0,-1.0
A,0.0
R,0.0
NS,4.0,2.0,0.0,-1.0,-1.0
NS,3.0,3.0,0.0,-1.0,-1.0
NS,0.0,0.0,0.0,0.0,0.0
I,8
CP,0.0,0.0,1.0,0.0,0.0
CS,4.0,2.0,0.0,-1.0,-1.0
CS,3.0,3.0,0.0,-1.0,-1.0
CS,0.0,0.0,0.0,0.0,0.0
A,0.0
R,0.0
NS,3.0,3.0,0.0,-1.0,-1.0
NS,0.0,0.0,0.0,0.0,0.0
NS,0.0,0.0,0.0,0.0,0.0
I,9
CP,0.0,0.0,1.0,0.0,0.0
CS,3.0,3.0,0.0,-1.0,-1.0
CS,0.0,0.0,0.0,0.0,0.0
CS,0.0,0.0,0.0,0.0,0.0
A,0.0
R,0.0
NS,0.0,0.0,0.0,0.0,0.0
NS,0.0,0.0,0.0,0.0,0.0
NS,0.0,0.0,0.0,0.0,0.0
I,10
CP,0.0,0.0,0.0,1.0,0.0
CS,0.3899062645534155,4.583969254471683,4.205105069027294,-0.4839599948533255,-0.8908126767797855
CS,0.4936242550706105,-3.0898510285649614,-1.17193666786764,3.0788322759425686,2.005347400713287
CS,0.19401707124283973,-4.715852891979178,-0.4362896373908196,2.6776417863075785,1.065554282434662
A,1.0
R,3.0788322759425686
NS,0.4936242550706105,-3.0898510285649614,-1.17193666786764,3.0788322759425686,2.005347400713287
NS,0.19401707124283973,-4.715852891979178,-0.4362896373908196,2.6776417863075785,1.065554282434662
NS,-3.9855948116310946,-2.550537769453245,-2.095495071382958,2.3743923893333543,4.998611830772406
I,11
CP,0.0,0.0,0.0,0.0,1.0
CS,0.4936242550706105,-3.0898510285649614,-1.17193666786764,3.0788322759425686,2.005347400713287
CS,0.19401707124283973,-4.715852891979178,-0.4362896373908196,2.6776417863075785,1.065554282434662
CS,-3.9855948116310946,-2.550537769453245,-2.095495071382958,2.3743923893333543,4.998611830772406
A,1.0
R,1.065554282434662
NS,0.19401707124283973,-4.715852891979178,-0.4362896373908196,2.6776417863075785,1.065554282434662
NS,-3.9855948116310946,-2.550537769453245,-2.095495071382958,2.3743923893333543,4.998611830772406
NS,4.302589140638307,-3.8025894931962876,1.558750568021189,-2.2445343563564624,4.775470950736647
I,12
CP,0.0,0.0,0.0,0.0,1.0
CS,0.19401707124283973,-4.715852891979178,-0.4362896373908196,2.6776417863075785,1.065554282434662
CS,-3.9855948116310946,-2.550537769453245,-2.095495071382958,2.3743923893333543,4.998611830772406
CS,4.302589140638307,-3.8025894931962876,1.558750568021189,-2.2445343563564624,4.775470950736647
A,1.0
R,4.998611830772406
NS,-3.9855948116310946,-2.550537769453245,-2.095495071382958,2.3743923893333543,4.998611830772406
NS,4.302589140638307,-3.8025894931962876,1.558750568021189,-2.2445343563564624,4.775470950736647
NS,4.735819618487266,-4.188174230291325,1.7188789211832232,0.794074199250324,1.0678497491129058
I,13
CP,0.0,0.0,0.0,1.0,0.0
CS,1.0,1.0,0.0,-1.0,-1.0
CS,1.0,1.0,0.0,-1.0,-1.0
CS,1.0,1.0,0.0,-1.0,-1.0
A,1.0
R,-1.0
NS,1.0,1.0,0.0,-1.0,-1.0
NS,1.0,1.0,0.0,-1.0,-1.0
NS,1.0,1.0,0.0,-1.0,-1.0
I,14
CP,0.0,0.0,0.0,0.0,1.0
CS,1.0,1.0,0.0,-1.0,-1.0
CS,1.0,1.0,0.0,-1.0,-1.0
CS,1.0,1.0,0.0,-1.0,-1.0
A,1.0
R,-1.0
NS,1.0,1.0,0.0,-1.0,-1.0
NS,1.0,1.0,0.0,-1.0,-1.0
NS,1.0,1.0,0.0,-1.0,-1.0
I,15
CP,0.0,0.0,0.0,0.0,1.0
CS,1.0,1.0,0.0,-1.0,-1.0
CS,1.0,1.0,0.0,-1.0,-1.0
CS,1.0,1.0,0.0,-1.0,-1.0
A,1.0
R,-1.0
NS,1.0,1.0,0.0,-1.0,-1.0
NS,1.0,1.0,0.0,-1.0,-1.0
NS,1.0,1.0,0.0,-1.0,-1.0
I,16
CP,0.0,0.0,0.0,0.0,1.0
CS,1.0,1.0,0.0,-1.0,-1.0
CS,1.0,1.0,0.0,-1.0,-1.0
CS,1.0,1.0,0.0,-1.0,-1.0
A,1.0
R,-1.0
NS,1.0,1.0,0.0,-1.0,-1.0
NS,1.0,1.0,0.0,-1.0,-1.0
NS,1.0,1.0,0.0,-1.0,-1.0
I,17
CP,0.0,0.0,0.0,0.0,1.0
CS,1.0,1.0,0.0,-1.0,-1.0
CS,1.0,1.0,0.0,-1.0,-1.0
CS,1.0,1.0,0.0,-1.0,-1.0
A,1.0
R,-1.0
NS,1.0,1.0,0.0,-1.0,-1.0
NS,1.0,1.0,0.0,-1.0,-1.0
NS,1.0,1.0,0.0,-1.0,-1.0
I,18
CP,0.0,0.0,0.0,0.0,1.0
CS,1.0,1.0,0.0,-1.0,-1.0
CS,1.0,1.0,0.0,-1.0,-1.0
CS,1.0,1.0,0.0,-1.0,-1.0
A,1.0
R,-1.0
NS,1.0,1.0,0.0,-1.0,-1.0
NS,1.0,1.0,0.0,-1.0,-1.0
NS,1.0,1.0,0.0,-1.0,-1.0
I,19
CP,0.0,0.0,0.0,0.0,1.0
CS,1.0,1.0,0.0,-1.0,-1.0
CS,1.0,1.0,0.0,-1.0,-1.0
CS,1.0,1.0,0.0,-1.0,-1.0
A,1.0
R,-1.0
NS,1.0,1.0,0.0,-1.0,-1.0
NS,1.0,1.0,0.0,-1.0,-1.0
NS,1.0,1.0,0.0,-1.0,-1.0
I,20
CP,0.0,0.0,0.0,0.0,1.0
CS,1.0,1.0,0.0,-1.0,-1.0
CS,1.0,1.0,0.0,-1.0,-1.0
CS,1.0,1.0,0.0,-1.0,-1.0
A,1.0
R,-1.0
NS,1.0,1.0,0.0,-1.0,-1.0
NS,1.0,1.0,0.0,-1.0,-1.0
NS,1.0,1.0,0.0,-1.0,-1.0
I,21
CP,0.0,0.0,0.0,0.0,1.0
CS,1.0,1.0,0.0,-1.0,-1.0
CS,1.0,1.0,0.0,-1.0,-1.0
CS,1.0,1.0,0.0,-1.0,-1.0
A,1.0
R,-1.0
NS,1.0,1.0,0.0,-1.0,-1.0
NS,1.0,1.0,0.0,-1.0,-1.0
NS,1.0,1.0,0.0,-1.0,-1.0
I,22
CP,0.0,0.0,0.0,0.0,1.0
CS,1.0,1.0,0.0,-1.0,-1.0
CS,1.0,1.0,0.0,-1.0,-1.0
CS,1.0,1.0,0.0,-1.0,-1.0
A,1.0
R,-1.0
NS,1.0,1.0,0.0,-1.0,-1.0
NS,1.0,1.0,0.0,-1.0,-1.0
NS,1.0,1.0,0.0,-1.0,-1.0
I,23
CP,0.0,0.0,0.0,0.0,1.0
CS,1.0,1.0,0.0,-1.0,-1.0
CS,1.0,1.0,0.0,-1.0,-1.0
CS,1.0,1.0,0.0,-1.0,-1.0
A,1.0
R,-1.0
NS,1.0,1.0,0.0,-1.0,-1.0
NS,1.0,1.0,0.0,-1.0,-1.0
NS,1.0,1.0,0.0,-1.0,-1.0
I,24
CP,0.0,0.0,0.0,0.0,1.0
CS,1.0,1.0,0.0,-1.0,-1.0
CS,1.0,1.0,0.0,-1.0,-1.0
CS,1.0,1.0,0.0,-1.0,-1.0
A,1.0
R,-1.0
NS,1.0,1.0,0.0,-1.0,-1.0
NS,1.0,1.0,0.0,-1.0,-1.0
NS,1.0,1.0,0.0,-1.0,-1.0
I,25
CP,0.0,0.0,0.0,0.0,1.0
CS,1.0,1.0,0.0,-1.0,-1.0
CS,1.0,1.0,0.0,-1.0,-1.0
CS,1.0,1.0,0.0,-1.0,-1.0
A,1.0
R,-1.0
NS,1.0,1.0,0.0,-1.0,-1.0
NS,1.0,1.0,0.0,-1.0,-1.0
NS,1.0,1.0,0.0,-1.0,-1.0
I,26
CP,0.0,0.0,0.0,0.0,1.0
CS,1.0,1.0,0.0,-1.0,-1.0
CS,1.0,1.0,0.0,-1.0,-1.0
CS,1.0,1.0,0.0,-1.0,-1.0
A,1.0
R,-1.0
NS,1.0,1.0,0.0,-1.0,-1.0
NS,1.0,1.0,0.0,-1.0,-1.0
NS,1.0,1.0,0.0,-1.0,-1.0
I,27
CP,0.0,0.0,0.0,0.0,1.0
CS,1.0,1.0,0.0,-1.0,-1.0
CS,1.0,1.0,0.0,-1.0,-1.0
CS,1.0,1.0,0.0,-1.0,-1.0
A,1.0
R,-1.0
NS,1.0,1.0,0.0,-1.0,-1.0
NS,1.0,1.0,0.0,-1.0,-1.0
NS,1.0,1.0,0.0,-1.0,-1.0
I,28
CP,0.0,0.0,0.0,0.0,1.0
CS,1.0,1.0,0.0,-1.0,-1.0
CS,1.0,1.0,0.0,-1.0,-1.0
CS,1.0,1.0,0.0,-1.0,-1.0
A,1.0
R,-1.0
NS,1.0,1.0,0.0,-1.0,-1.0
NS,1.0,1.0,0.0,-1.0,-1.0
NS,1.0,1.0,0.0,-1.0,-1.0
I,29
CP,0.0,0.0,0.0,0.0,1.0
CS,1.0,1.0,0.0,-1.0,-1.0
CS,1.0,1.0,0.0,-1.0,-1.0
CS,1.0,1.0,0.0,-1.0,-1.0
A,1.0
R,-1.0
NS,1.0,1.0,0.0,-1.0,-1.0
NS,1.0,1.0,0.0,-1.0,-1.0
NS,1.0,1.0,0.0,-1.0,-1.0
I,30
CP,0.0,0.0,0.0,0.0,1.0
CS,1.0,1.0,0.0,-1.0,-1.0
CS,1.0,1.0,0.0,-1.0,-1.0
CS,1.0,1.0,0.0,-1.0,-1.0
A,1.0
R,-1.0
NS,1.0,1.0,0.0,-1.0,-1.0
NS,1.0,1.0,0.0,-1.0,-1.0
NS,1.0,1.0,0.0,-1.0,-1.0
I,31
CP,0.0,0.0,0.0,0.0,1.0
CS,1.0,1.0,0.0,-1.0,-1.0
CS,1.0,1.0,0.0,-1.0,-1.0
CS,1.0,1.0,0.0,-1.0,-1.0
A,1.0
R,-1.0
NS,1.0,1.0,0.0,-1.0,-1.0
NS,1.0,1.0,0.0,-1.0,-1.0
NS,1.0,1.0,0.0,-1.0,-1.0
I,32
CP,0.0,0.0,0.0,0.0,1.0
CS,1.0,1.0,0.0,-1.0,-1.0
CS,1.0,1.0,0.0,-1.0,-1.0
CS,1.0,1.0,0.0,-1.0,-1.0
A,1.0
R,-1.0
NS,1.0,1.0,0.0,-1.0,-1.0
NS,1.0,1.0,0.0,-1.0,-1.0
NS,1.0,1.0,0.0,-1.0,-1.0
I,33
CP,0.0,0.0,0.0,0.0,1.0
CS,1.0,1.0,0.0,-1.0,-1.0
CS,1.0,1.0,0.0,-1.0,-1.0
CS,1.0,1.0,0.0,-1.0,-1.0
A,1.0
R,-1.0
NS,1.0,1.0,0.0,-1.0,-1.0
NS,1.0,1.0,0.0,-1.0,-1.0
NS,1.0,1.0,0.0,-1.0,-1.0
I,34
CP,0.0,0.0,0.0,0.0,1.0
CS,1.0,1.0,0.0,-1.0,-1.0
CS,1.0,1.0,0.0,-1.0,-1.0
CS,1.0,1.0,0.0,-1.0,-1.0
A,1.0
R,-1.0
NS,1.0,1.0,0.0,-1.0,-1.0
NS,1.0,1.0,0.0,-1.0,-1.0
NS,1.0,1.0,0.0,-1.0,-1.0
I,35
CP,0.0,0.0,0.0,0.0,1.0
CS,1.0,1.0,0.0,-1.0,-1.0
CS,1.0,1.0,0.0,-1.0,-1.0
CS,1.0,1.0,0.0,-1.0,-1.0
A,1.0
R,-1.0
NS,1.0,1.0,0.0,-1.0,-1.0
NS,1.0,1.0,0.0,-1.0,-1.0
NS,1.0,1.0,0.0,-1.0,-1.0
I,36
CP,0.0,0.0,0.0,0.0,1.0
CS,1.0,1.0,0.0,-1.0,-1.0
CS,1.0,1.0,0.0,-1.0,-1.0
CS,1.0,1.0,0.0,-1.0,-1.0
A,1.0
R,-1.0
NS,1.0,1.0,0.0,-1.0,-1.0
NS,1.0,1.0,0.0,-1.0,-1.0
NS,1.0,1.0,0.0,-1.0,-1.0
I,37
CP,0.0,0.0,0.0,0.0,1.0
CS,1.0,1.0,0.0,-1.0,-1.0
CS,1.0,1.0,0.0,-1.0,-1.0
CS,1.0,1.0,0.0,-1.0,-1.0
A,1.0
R,-1.0
NS,1.0,1.0,0.0,-1.0,-1.0
NS,1.0,1.0,0.0,-1.0,-1.0
NS,1.0,1.0,0.0,-1.0,-1.0
I,38
CP,0.0,0.0,0.0,0.0,1.0
CS,1.0,1.0,0.0,-1.0,-1.0
CS,1.0,1.0,0.0,-1.0,-1.0
CS,1.0,1.0,0.0,-1.0,-1.0
A,1.0
R,-1.0
NS,1.0,1.0,0.0,-1.0,-1.0
NS,1.0,1.0,0.0,-1.0,-1.0
NS,1.0,1.0,0.0,-1.0,-1.0
I,39
CP,0.0,0.0,0.0,0.0,1.0
CS,1.0,1.0,0.0,-1.0,-1.0
CS,1.0,1.0,0.0,-1.0,-1.0
CS,1.0,1.0,0.0,-1.0,-1.0
A,1.0
R,-1.0
NS,1.0,1.0,0.0,-1.0,-1.0
NS,1.0,1.0,0.0,-1.0,-1.0
NS,1.0,1.0,0.0,-1.0,-1.0
I,40
CP,0.0,0.0,0.0,0.0,1.0
CS,1.0,1.0,0.0,-1.0,-1.0
CS,1.0,1.0,0.0,-1.0,-1.0
CS,1.0,1.0,0.0,-1.0,-1.0
A,1.0
R,-1.0
NS,1.0,1.0,0.0,-1.0,-1.0
NS,1.0,1.0,0.0,-1.0,-1.0
NS,1.0,1.0,0.0,-1.0,-1.0
I,41
CP,0.0,0.0,0.0,0.0,1.0
CS,1.0,1.0,0.0,-1.0,-1.0
CS,1.0,1.0,0.0,-1.0,-1.0
CS,1.0,1.0,0.0,-1.0,-1.0
A,1.0
R,-1.0
NS,1.0,1.0,0.0,-1.0,-1.0
NS,1.0,1.0,0.0,-1.0,-1.0
NS,0.0,0.0,0.0,0.0,0.0
I,42
CP,0.0,0.0,0.0,0.0,1.0
CS,1.0,1.0,0.0,-1.0,-1.0
CS,1.0,1.0,0.0,-1.0,-1.0
CS,0.0,0.0,0.0,0.0,0.0
A,1.0
R,-1.0
NS,1.0,1.0,0.0,-1.0,-1.0
NS,0.0,0.0,0.0,0.0,0.0
NS,0.0,0.0,0.0,0.0,0.0
E
