-6.410403333334012584e-03,4.784419358178015419e-05,6.857483263002036970e-03
5.807613503057859790e-03,-8.465497623432413979e-03,9.141678821246133901e-03
-1.073647845954974096e-02,3.734561623880410398e-03,-1.167304289180045446e-02
-1.374731514053123115e-03,3.303686758541051274e-03,1.986902356169829333e-03
1.743057137354869128e-03,-1.480032772724757147e-02,1.355714551064123724e-02
-3.326054543348084137e-03,-5.417544467932988196e-03,-4.512492751372736491e-03
-5.078152231223547960e-03,-3.323126696508980297e-03,1.251962958874832310e-03
-4.335230364761616557e-03,1.297649638467239909e-03,-1.663122969255441050e-04
5.418333103830012300e-03,1.095153515838494934e-02,8.720734543256549939e-03
-2.147062803594371964e-03,4.846373192885005342e-04,-7.361862564912646442e-03
5.498928921766977132e-03,6.803532568647270053e-03,8.198679838272552450e-03
6.974302879603720522e-03,-3.128645842326146544e-03,1.238145447634087827e-02
-1.988645560500524722e-03,-9.302418910369968444e-03,-4.799380170060527952e-03
-8.745221003002096255e-04,-9.796970997668072781e-05,-2.361030849875060591e-03
4.617835320943630001e-03,-3.226966857192977139e-03,9.584440033773521800e-03
-1.559357167324657803e-04,-1.710325946358249802e-04,4.089617387918952421e-03
-1.053079242016501278e-02,7.914868796689211380e-03,1.080578959483248676e-02
-3.176747672307822425e-03,-5.527261433608192213e-03,-2.477086945073397450e-03
7.518372539988521508e-03,1.009881306106140408e-02,7.054037745367658201e-03
1.000541339741184942e-02,8.434208396796094792e-04,4.682339461960881646e-03
4.234643955295096240e-03,-3.580744018823455994e-04,-3.020955644602691184e-03
1.023916130302149688e-02,8.236620537815405110e-03,-3.257981341585133948e-03
6.173855556325598230e-03,-4.298027497808500422e-03,-3.684954916347310799e-03
8.117871920736667926e-03,-2.993938315591548795e-03,3.271344453184223035e-03
8.393164158421839282e-04,-9.737153526610200669e-04,-1.091424593962739623e-02
6.252107501933538806e-03,-7.526425343502598543e-03,1.488159774958362595e-02
9.357213422573633713e-03,2.128513166078066943e-03,2.739690251315378584e-03
5.035227607022671470e-03,-2.195581421913742060e-03,5.548031847554275170e-03
-2.190144611806403921e-03,1.440013073909460900e-02,1.746680221572682878e-02
-4.579968886523151021e-04,-4.720208883171472629e-03,9.836747351346717197e-03
-5.636809189467101300e-03,1.762520423051463061e-03,8.959535293075625642e-03
4.843782951886028802e-03,-8.071510120166295807e-03,1.407606762056848445e-03
2.370538631696468296e-03,5.238362814516373499e-03,3.014423199618984552e-03
1.929906428328731754e-04,1.075397520470858584e-02,2.462236508406047552e-05
-6.662676699655972236e-03,-1.154213566815727107e-02,1.051172974635406453e-02
-9.011589984639790246e-05,-4.795177969075534521e-03,-3.963579100807854312e-03
1.714885818531594695e-03,-1.040602847418309633e-03,-3.556674077750296772e-03
1.953415866427337874e-03,2.361814585755287865e-03,-1.085578832469523240e-02
1.426755662394164036e-02,-2.514948342989720316e-03,-3.755443300746908082e-03
-5.038734567989242887e-03,7.665521003189841413e-03,-5.298090812756568735e-03
3.909645092600842905e-04,-6.226452077608129500e-03,5.218527696723060036e-03
-4.465639520659231421e-03,1.016954558503071170e-02,1.889757416894430591e-03
7.541140595204134239e-03,6.769073561230145274e-03,5.406573317573461473e-04
9.217986572120824844e-05,3.389060589912388632e-03,-2.075968185384088373e-03
-1.509396095044375074e-04,-2.557871197396215015e-03,5.610962818105053040e-03
5.961203154335639742e-03,4.328289173973435405e-03,-2.678963140960195690e-03
7.742506459492637209e-03,-3.275141127036052761e-03,5.897130593701820772e-03
5.471199736341538465e-03,-1.007473382151746408e-02,-1.111260669126370136e-02
-1.000397500941227393e-03,8.298489427513492528e-03,-1.344373450685813418e-02
-6.139963447531268138e-03,1.003928237481766655e-02,-1.035908722849110310e-03
-6.542340083904439607e-03,-4.058103233670358641e-03,1.351004741901408630e-02
-3.815650556119489726e-03,4.904910888996701947e-03,-5.956820390068716733e-03
-1.063314187182247232e-02,-2.455736501130299787e-02,-8.752891388370258319e-03
-7.644322186713705530e-03,3.237190212296581389e-03,-2.841422386220132396e-03
-8.434554489569773966e-03,-3.808630795596944143e-03,-4.695617546827055011e-04
6.159605067112261783e-04,-5.490588766963943115e-03,-2.537138135742983240e-03
-1.061906318754598198e-02,1.915161650370655411e-03,-2.737409528581971271e-03
5.427062783767526433e-03,-5.415113690500014849e-03,-1.172684733684684587e-02
-7.283138779089115035e-03,3.199237449868007604e-03,8.763382703081797759e-03
-4.518078673238061678e-03,-4.093770069264565485e-03,-3.144692440125884669e-03
-2.016624097829020773e-03,3.305474198637895281e-03,-6.593283359506895737e-03
-9.219894948231784071e-03,-3.376291751432950166e-03,1.472623439381413359e-03
-6.200306540755907980e-03,-6.411018748622508701e-03,-7.855093582380538383e-03
8.397884162355760337e-03,2.488632462604866585e-04,3.790680180606272390e-03
3.378121625824375817e-03,9.752261475934391423e-04,1.015335551368846609e-02
9.424159729567708641e-04,-5.799783664510563090e-03,-1.259365563584873568e-03
-9.247874578475117962e-05,-1.425129712902512523e-02,6.383098273531384419e-03
-3.922054137118032545e-03,-5.736071235383937740e-03,-1.129789277029186233e-03
1.544008638564670598e-02,2.711451155761233911e-03,8.157207499442758721e-04
3.517627882365788024e-04,-1.489625658965076796e-03,1.482966119008232147e-03
4.818831547823865247e-03,-6.121178647917908250e-03,-6.069724350635794137e-03
-9.981419806962868110e-03,-8.003361154919876042e-03,7.055732446469249915e-03
-3.189746465231009780e-03,1.405656514934035218e-03,6.954099644030099260e-03
6.454655103671799558e-04,5.421795176778476492e-03,7.345417057604030839e-03
-6.452756692945670926e-03,-2.999562863302043456e-03,-7.645559146978532332e-03
-5.795142318656210448e-03,-9.129107598653472518e-04,2.969905768731043779e-03
-1.238180972428981706e-03,9.744080619476776315e-04,-3.700861244786662462e-03
-2.692516632454674836e-03,-7.758903977759524541e-03,-5.461113697184585315e-03
2.473709758811682910e-03,-1.229671698682931018e-02,-1.544702331368802417e-02
-7.577784152659274713e-03,-7.489362642060791095e-03,-4.208072448688830215e-03
-1.602186348733784793e-02,3.763851849078914732e-03,3.659956207034802296e-03
-2.801243860348441497e-03,-7.470952190205311892e-03,-2.945632851183375197e-03
9.952659117429572128e-03,-1.406584314768159457e-03,9.701127408583171130e-03
-4.991040303597910673e-04,9.593578050378710927e-04,-4.244776819419345329e-03
5.487234712916249594e-04,1.161546466182046154e-03,-8.512781474261685993e-03
5.092832834781000663e-03,-9.415205927231841063e-03,2.941783274113376426e-03
-5.206419201971384386e-03,-1.701472548250816327e-02,-1.840794108108130284e-03
-4.003322642036000016e-03,1.127481912029750823e-03,7.997375847818150030e-03
-2.218216785029100604e-03,7.992047374630309800e-03,-2.105094723440207108e-03
5.373089323002205007e-03,-2.907211281950267210e-03,8.433655176062360842e-03
4.142551917168201371e-04,4.876810508497530193e-03,6.164182345959150905e-03
5.008093857389612352e-03,8.181912820750139679e-04,7.940929776167802989e-03
2.531423572239593477e-03,-1.038524081789843345e-02,2.383934196401282270e-03
-2.533043040811123591e-03,8.156551159456269101e-03,4.936073113589657018e-04
1.635947846803322350e-03,-3.054214332854846416e-04,1.349280596644147033e-02
-1.221217810831113325e-02,-5.867428543314181025e-03,-1.846845246318920076e-03
6.487005417052632561e-03,5.329280038203662064e-03,6.084001218918528827e-04
5.726049019435856769e-04,-1.210933632863249058e-04,1.670258655599160449e-03
1.299348862422929378e-03,1.132499994234922175e-02,1.275125508722036241e-02
7.521787109190847601e-03,3.311618483964497064e-03,-5.859689072081342154e-03
-1.256199006355968734e-02,1.046060832555342724e-03,-5.265545260088907824e-03
1.010350808121319348e-03,-1.445060195049201711e-02,1.393676050797411142e-03
1.354643398813656745e-02,2.481194178770872606e-03,2.426555394989843729e-03
6.067817371100891859e-03,1.058717478738316863e-02,3.213281851415862849e-03
3.368605422832395176e-03,1.324389549314409099e-03,-4.538320395678683596e-03
1.415923980187340503e-02,-7.173914245475520104e-03,-6.983723011467758007e-03
-5.923122469140606854e-03,5.539515895876241311e-03,9.947011564667776473e-03
7.319708816445755911e-03,2.397316072034095732e-03,-8.568506730453199702e-03
-1.846070135679152378e-03,-4.380291555372858511e-03,-3.577811831976116644e-06
-1.852960464942372864e-03,-1.274226562690693176e-02,3.214514961624496091e-03
6.033363336005067440e-03,-8.771361714175199970e-03,-2.100423930127718036e-03
1.226442826305727081e-03,-1.607366328432575237e-03,4.328771323876643741e-03
3.866997504965547297e-03,-4.320332141959786453e-03,-6.031083051158652852e-04
6.324262708289826729e-03,-4.445742656850953868e-04,1.657307961791738490e-02
-3.736056566542851447e-03,-2.070224086788798653e-04,-5.014362767212358386e-04
1.958198679729080283e-03,-8.377894621156132052e-03,-5.998516213785351145e-03
-5.755796587913869153e-03,8.880572122050513564e-03,-1.417834499346311457e-03
7.835854934567820437e-03,-2.178081484846372366e-03,-9.005758516605612230e-04
5.575346438147633747e-04,2.066941556995475170e-05,-1.423091833924113210e-02
3.670900414268923363e-03,8.286735116912505653e-03,-1.006779703434199091e-02
8.991022470425094268e-03,1.047060325026774423e-02,-8.949702808489307104e-03
-1.673094381839392714e-02,-9.253397034362944792e-03,3.262021029700439521e-03
-1.098122484477954269e-03,-4.347239160587495696e-03,5.798605180747188996e-03
-5.110845168797985283e-03,1.248720306804746751e-02,-4.319303398355003637e-04
-4.008024683950048295e-03,2.286125552099640707e-03,1.895875730425052464e-03
-3.380422220998370759e-03,9.787162241749820975e-04,9.015910220058013722e-03
3.174388562244604382e-03,-4.121510325805695894e-03,-1.534552196334152503e-03
-1.400465690083248400e-03,1.132997633070124271e-02,1.311380732632686473e-02
-6.094488435587547270e-03,6.967403635919475115e-04,-2.268393208180237430e-03
-7.659888146409865248e-03,3.852136652188022266e-03,-4.259797274819778976e-03
5.117487549820904508e-03,2.175946365334269130e-03,-6.135785796529149433e-03
-3.654950740843322578e-03,-5.045646079255219560e-03,5.108796992425428812e-04
-1.553020459582070542e-03,-6.935063498718007854e-03,-8.454340622109576819e-03
6.629094065973959241e-03,-4.228052723264261355e-03,1.009698524202958490e-02
-2.080614579074580982e-03,1.762017911194975646e-03,-1.121411350290932481e-02
-2.163595093415085057e-03,7.924368090738745721e-03,1.258638774683065731e-02
1.694339725077838484e-03,-1.010101339411776690e-02,3.250617269056140673e-04
-4.990701167711130738e-03,1.254253048137958688e-02,-4.588464595606973027e-03
-7.602445428980281195e-03,7.328459387813970015e-03,-6.039018247250408679e-03
1.387172106002262624e-03,-1.144558622404509042e-02,-1.470486708030624380e-03
-6.812326656279529477e-03,3.941272666844367924e-03,-7.550241565760774237e-03
-5.677804203314283649e-03,4.178273586758752406e-03,1.596699419333976648e-03
4.029200523688075686e-03,1.105780557312972985e-02,-6.685838360510838784e-04
1.547238182084019129e-04,4.829753694176533961e-03,7.523433881793861397e-03
3.342217901975317110e-03,1.069658616849325332e-02,6.068439556378265633e-03
5.089482752647897339e-03,6.026745717731088990e-03,3.614209761423796581e-03
-5.302692124052925393e-03,6.472875509557325484e-03,2.664554976694566337e-03
-4.600047261963479024e-03,-7.760888777839985910e-05,-1.039653066243152908e-02
-8.731712413190194713e-03,-1.128346053965445864e-02,-1.662583756347074410e-03
-1.728484106558838976e-03,2.398129450681779802e-03,-8.083648980078139007e-03
